<svg width="20" height="20" viewBox="0 0 20 20" fill="none" xmlns="http://www.w3.org/2000/svg">
<path d="M6 6L14 14M6 14L14 6" stroke="#A9A6AE" stroke-width="1.5" stroke-linecap="round" stroke-linejoin="round"/>
</svg>
